{
    "prepare_queue": {
        "installed": [],
        "uninstalled": []
    },
    "config_munge": {
        "files": {}
    },
    "installed_plugins": {
        "cordova-plugin-console": {
            "PACKAGE_NAME": "com.connecttel.mycal"
        },
        "cordova-plugin-contacts": {
            "CONTACTS_USAGE_DESCRIPTION": " ",
            "PACKAGE_NAME": "com.connecttel.mycal"
        },
        "cordova-plugin-fcm": {
            "PACKAGE_NAME": "com.connecttel.mycal"
        },
        "cordova-plugin-inappbrowser": {
            "PACKAGE_NAME": "com.connecttel.mycal"
        },
        "cordova-plugin-whitelist": {
            "PACKAGE_NAME": "com.connecttel.mycal"
        }
    },
    "dependent_plugins": {
        "cordova-plugin-compat": {
            "PACKAGE_NAME": "com.connecttel.mycal"
        }
    }
}